G04 #@! TF.FileFunction,Copper,L2,Bot,Signal*
%FSLAX46Y46*%
G04 Gerber Fmt 4.6, Leading zero omitted, Abs format (unit mm)*
G04 Created by KiCad (PCBNEW 4.0.4-stable) date 05/22/17 17:59:08*
%MOMM*%
%LPD*%
G01*
G04 APERTURE LIST*
%ADD10C,0.100000*%
%ADD11O,3.000000X6.000000*%
%ADD12C,2.000000*%
%ADD13R,2.000000X2.000000*%
%ADD14C,6.500000*%
%ADD15O,1.700000X1.700000*%
%ADD16R,1.700000X1.700000*%
%ADD17C,0.500000*%
%ADD18C,0.300000*%
G04 APERTURE END LIST*
D10*
D11*
X12480000Y-6880000D03*
D12*
X17250000Y-7385000D03*
X19750000Y-7385000D03*
D13*
X17250000Y-4175000D03*
D11*
X24520000Y-6880000D03*
D12*
X19750000Y-4175000D03*
D14*
X3500000Y-5730000D03*
X33500000Y-5730000D03*
D15*
X21040000Y-16270000D03*
D16*
X21040000Y-13730000D03*
D15*
X18500000Y-16270000D03*
X18500000Y-13730000D03*
X15960000Y-16270000D03*
X15960000Y-13730000D03*
D17*
X33500000Y-5730000D02*
X33500000Y-5310000D01*
X33500000Y-5310000D02*
X29000000Y-810000D01*
X12480000Y-6880000D02*
X8770000Y-6880000D01*
X8770000Y-6880000D02*
X8490000Y-7160000D01*
X3500000Y-5730000D02*
X3540000Y-5730000D01*
X3540000Y-5730000D02*
X8490000Y-780000D01*
X8490000Y-780000D02*
X8490000Y-7160000D01*
X8490000Y-7160000D02*
X8490000Y-17050000D01*
X24520000Y-6880000D02*
X28960000Y-6880000D01*
X29000000Y-810000D02*
X29000000Y-16940000D01*
X28990000Y-800000D02*
X29000000Y-810000D01*
X28990000Y-6850000D02*
X28990000Y-800000D01*
X28960000Y-6880000D02*
X28990000Y-6850000D01*
X33500000Y-5730000D02*
X33500000Y-5270000D01*
X3500000Y-5730000D02*
X3530000Y-5730000D01*
X33500000Y-5730000D02*
X33500000Y-5250000D01*
X33500000Y-5730000D02*
X33500000Y-5260000D01*
D18*
G36*
X36500000Y-17500000D02*
X29150000Y-17500000D01*
X29150000Y-500000D01*
X36500000Y-500000D01*
X36500000Y-17500000D01*
X36500000Y-17500000D01*
G37*
X36500000Y-17500000D02*
X29150000Y-17500000D01*
X29150000Y-500000D01*
X36500000Y-500000D01*
X36500000Y-17500000D01*
G36*
X28850000Y-17500000D02*
X21519953Y-17500000D01*
X21537488Y-17496512D01*
X21959239Y-17214708D01*
X22241043Y-16792957D01*
X22340000Y-16295469D01*
X22340000Y-16244531D01*
X22241043Y-15747043D01*
X21959239Y-15325292D01*
X21537488Y-15043488D01*
X21514000Y-15038816D01*
X21890000Y-15038816D01*
X22056760Y-15007438D01*
X22209919Y-14908883D01*
X22312668Y-14758505D01*
X22348816Y-14580000D01*
X22348816Y-12880000D01*
X22317438Y-12713240D01*
X22218883Y-12560081D01*
X22068505Y-12457332D01*
X21890000Y-12421184D01*
X20190000Y-12421184D01*
X20023240Y-12452562D01*
X19870081Y-12551117D01*
X19767332Y-12701495D01*
X19731184Y-12880000D01*
X19731184Y-13358571D01*
X19701043Y-13207043D01*
X19419239Y-12785292D01*
X18997488Y-12503488D01*
X18500000Y-12404531D01*
X18002512Y-12503488D01*
X17580761Y-12785292D01*
X17298957Y-13207043D01*
X17276309Y-13320902D01*
X17126813Y-12956334D01*
X16741925Y-12568706D01*
X16237997Y-12357874D01*
X16228253Y-12355940D01*
X16010000Y-12468490D01*
X16010000Y-13680000D01*
X16030000Y-13680000D01*
X16030000Y-13780000D01*
X16010000Y-13780000D01*
X16010000Y-14991510D01*
X16026464Y-15000000D01*
X16010000Y-15008490D01*
X16010000Y-16220000D01*
X16030000Y-16220000D01*
X16030000Y-16320000D01*
X16010000Y-16320000D01*
X16010000Y-16340000D01*
X15910000Y-16340000D01*
X15910000Y-16320000D01*
X14698389Y-16320000D01*
X14585936Y-16538254D01*
X14793187Y-17043666D01*
X15178075Y-17431294D01*
X15342295Y-17500000D01*
X8650000Y-17500000D01*
X8650000Y-13998254D01*
X14585936Y-13998254D01*
X14793187Y-14503666D01*
X15178075Y-14891294D01*
X15437903Y-15000000D01*
X15178075Y-15108706D01*
X14793187Y-15496334D01*
X14585936Y-16001746D01*
X14698389Y-16220000D01*
X15910000Y-16220000D01*
X15910000Y-15008490D01*
X15893536Y-15000000D01*
X15910000Y-14991510D01*
X15910000Y-13780000D01*
X14698389Y-13780000D01*
X14585936Y-13998254D01*
X8650000Y-13998254D01*
X8650000Y-13461746D01*
X14585936Y-13461746D01*
X14698389Y-13680000D01*
X15910000Y-13680000D01*
X15910000Y-12468490D01*
X15691747Y-12355940D01*
X15682003Y-12357874D01*
X15178075Y-12568706D01*
X14793187Y-12956334D01*
X14585936Y-13461746D01*
X8650000Y-13461746D01*
X8650000Y-6930000D01*
X10430000Y-6930000D01*
X10430000Y-8430000D01*
X10605181Y-9210695D01*
X11065786Y-9864924D01*
X11741692Y-10293087D01*
X12110020Y-10396337D01*
X12430000Y-10291846D01*
X12430000Y-6930000D01*
X12530000Y-6930000D01*
X12530000Y-10291846D01*
X12849980Y-10396337D01*
X13218308Y-10293087D01*
X13894214Y-9864924D01*
X14354819Y-9210695D01*
X14530000Y-8430000D01*
X14530000Y-7672157D01*
X15799749Y-7672157D01*
X16020033Y-8205286D01*
X16427569Y-8613533D01*
X16960312Y-8834748D01*
X17537157Y-8835251D01*
X18070286Y-8614967D01*
X18478533Y-8207431D01*
X18499779Y-8156266D01*
X18520033Y-8205286D01*
X18927569Y-8613533D01*
X19460312Y-8834748D01*
X20037157Y-8835251D01*
X20570286Y-8614967D01*
X20978533Y-8207431D01*
X21199748Y-7674688D01*
X21200251Y-7097843D01*
X21130900Y-6930000D01*
X22470000Y-6930000D01*
X22470000Y-8430000D01*
X22645181Y-9210695D01*
X23105786Y-9864924D01*
X23781692Y-10293087D01*
X24150020Y-10396337D01*
X24470000Y-10291846D01*
X24470000Y-6930000D01*
X24570000Y-6930000D01*
X24570000Y-10291846D01*
X24889980Y-10396337D01*
X25258308Y-10293087D01*
X25934214Y-9864924D01*
X26394819Y-9210695D01*
X26570000Y-8430000D01*
X26570000Y-6930000D01*
X24570000Y-6930000D01*
X24470000Y-6930000D01*
X22470000Y-6930000D01*
X21130900Y-6930000D01*
X20979967Y-6564714D01*
X20572431Y-6156467D01*
X20039688Y-5935252D01*
X19462843Y-5934749D01*
X18929714Y-6155033D01*
X18521467Y-6562569D01*
X18500221Y-6613734D01*
X18479967Y-6564714D01*
X18072431Y-6156467D01*
X17539688Y-5935252D01*
X16962843Y-5934749D01*
X16429714Y-6155033D01*
X16021467Y-6562569D01*
X15800252Y-7095312D01*
X15799749Y-7672157D01*
X14530000Y-7672157D01*
X14530000Y-6930000D01*
X12530000Y-6930000D01*
X12430000Y-6930000D01*
X10430000Y-6930000D01*
X8650000Y-6930000D01*
X8650000Y-5330000D01*
X10430000Y-5330000D01*
X10430000Y-6830000D01*
X12430000Y-6830000D01*
X12430000Y-3468154D01*
X12530000Y-3468154D01*
X12530000Y-6830000D01*
X14530000Y-6830000D01*
X14530000Y-5330000D01*
X14354819Y-4549305D01*
X13894214Y-3895076D01*
X13218308Y-3466913D01*
X12849980Y-3363663D01*
X12530000Y-3468154D01*
X12430000Y-3468154D01*
X12110020Y-3363663D01*
X11741692Y-3466913D01*
X11065786Y-3895076D01*
X10605181Y-4549305D01*
X10430000Y-5330000D01*
X8650000Y-5330000D01*
X8650000Y-3175000D01*
X15791184Y-3175000D01*
X15791184Y-5175000D01*
X15822562Y-5341760D01*
X15921117Y-5494919D01*
X16071495Y-5597668D01*
X16250000Y-5633816D01*
X18250000Y-5633816D01*
X18416760Y-5602438D01*
X18569919Y-5503883D01*
X18672668Y-5353505D01*
X18707234Y-5182813D01*
X18927569Y-5403533D01*
X19460312Y-5624748D01*
X20037157Y-5625251D01*
X20570286Y-5404967D01*
X20645383Y-5330000D01*
X22470000Y-5330000D01*
X22470000Y-6830000D01*
X24470000Y-6830000D01*
X24470000Y-3468154D01*
X24570000Y-3468154D01*
X24570000Y-6830000D01*
X26570000Y-6830000D01*
X26570000Y-5330000D01*
X26394819Y-4549305D01*
X25934214Y-3895076D01*
X25258308Y-3466913D01*
X24889980Y-3363663D01*
X24570000Y-3468154D01*
X24470000Y-3468154D01*
X24150020Y-3363663D01*
X23781692Y-3466913D01*
X23105786Y-3895076D01*
X22645181Y-4549305D01*
X22470000Y-5330000D01*
X20645383Y-5330000D01*
X20978533Y-4997431D01*
X21199748Y-4464688D01*
X21200251Y-3887843D01*
X20979967Y-3354714D01*
X20572431Y-2946467D01*
X20039688Y-2725252D01*
X19462843Y-2724749D01*
X18929714Y-2945033D01*
X18707318Y-3167041D01*
X18677438Y-3008240D01*
X18578883Y-2855081D01*
X18428505Y-2752332D01*
X18250000Y-2716184D01*
X16250000Y-2716184D01*
X16083240Y-2747562D01*
X15930081Y-2846117D01*
X15827332Y-2996495D01*
X15791184Y-3175000D01*
X8650000Y-3175000D01*
X8650000Y-500000D01*
X28850000Y-500000D01*
X28850000Y-17500000D01*
X28850000Y-17500000D01*
G37*
X28850000Y-17500000D02*
X21519953Y-17500000D01*
X21537488Y-17496512D01*
X21959239Y-17214708D01*
X22241043Y-16792957D01*
X22340000Y-16295469D01*
X22340000Y-16244531D01*
X22241043Y-15747043D01*
X21959239Y-15325292D01*
X21537488Y-15043488D01*
X21514000Y-15038816D01*
X21890000Y-15038816D01*
X22056760Y-15007438D01*
X22209919Y-14908883D01*
X22312668Y-14758505D01*
X22348816Y-14580000D01*
X22348816Y-12880000D01*
X22317438Y-12713240D01*
X22218883Y-12560081D01*
X22068505Y-12457332D01*
X21890000Y-12421184D01*
X20190000Y-12421184D01*
X20023240Y-12452562D01*
X19870081Y-12551117D01*
X19767332Y-12701495D01*
X19731184Y-12880000D01*
X19731184Y-13358571D01*
X19701043Y-13207043D01*
X19419239Y-12785292D01*
X18997488Y-12503488D01*
X18500000Y-12404531D01*
X18002512Y-12503488D01*
X17580761Y-12785292D01*
X17298957Y-13207043D01*
X17276309Y-13320902D01*
X17126813Y-12956334D01*
X16741925Y-12568706D01*
X16237997Y-12357874D01*
X16228253Y-12355940D01*
X16010000Y-12468490D01*
X16010000Y-13680000D01*
X16030000Y-13680000D01*
X16030000Y-13780000D01*
X16010000Y-13780000D01*
X16010000Y-14991510D01*
X16026464Y-15000000D01*
X16010000Y-15008490D01*
X16010000Y-16220000D01*
X16030000Y-16220000D01*
X16030000Y-16320000D01*
X16010000Y-16320000D01*
X16010000Y-16340000D01*
X15910000Y-16340000D01*
X15910000Y-16320000D01*
X14698389Y-16320000D01*
X14585936Y-16538254D01*
X14793187Y-17043666D01*
X15178075Y-17431294D01*
X15342295Y-17500000D01*
X8650000Y-17500000D01*
X8650000Y-13998254D01*
X14585936Y-13998254D01*
X14793187Y-14503666D01*
X15178075Y-14891294D01*
X15437903Y-15000000D01*
X15178075Y-15108706D01*
X14793187Y-15496334D01*
X14585936Y-16001746D01*
X14698389Y-16220000D01*
X15910000Y-16220000D01*
X15910000Y-15008490D01*
X15893536Y-15000000D01*
X15910000Y-14991510D01*
X15910000Y-13780000D01*
X14698389Y-13780000D01*
X14585936Y-13998254D01*
X8650000Y-13998254D01*
X8650000Y-13461746D01*
X14585936Y-13461746D01*
X14698389Y-13680000D01*
X15910000Y-13680000D01*
X15910000Y-12468490D01*
X15691747Y-12355940D01*
X15682003Y-12357874D01*
X15178075Y-12568706D01*
X14793187Y-12956334D01*
X14585936Y-13461746D01*
X8650000Y-13461746D01*
X8650000Y-6930000D01*
X10430000Y-6930000D01*
X10430000Y-8430000D01*
X10605181Y-9210695D01*
X11065786Y-9864924D01*
X11741692Y-10293087D01*
X12110020Y-10396337D01*
X12430000Y-10291846D01*
X12430000Y-6930000D01*
X12530000Y-6930000D01*
X12530000Y-10291846D01*
X12849980Y-10396337D01*
X13218308Y-10293087D01*
X13894214Y-9864924D01*
X14354819Y-9210695D01*
X14530000Y-8430000D01*
X14530000Y-7672157D01*
X15799749Y-7672157D01*
X16020033Y-8205286D01*
X16427569Y-8613533D01*
X16960312Y-8834748D01*
X17537157Y-8835251D01*
X18070286Y-8614967D01*
X18478533Y-8207431D01*
X18499779Y-8156266D01*
X18520033Y-8205286D01*
X18927569Y-8613533D01*
X19460312Y-8834748D01*
X20037157Y-8835251D01*
X20570286Y-8614967D01*
X20978533Y-8207431D01*
X21199748Y-7674688D01*
X21200251Y-7097843D01*
X21130900Y-6930000D01*
X22470000Y-6930000D01*
X22470000Y-8430000D01*
X22645181Y-9210695D01*
X23105786Y-9864924D01*
X23781692Y-10293087D01*
X24150020Y-10396337D01*
X24470000Y-10291846D01*
X24470000Y-6930000D01*
X24570000Y-6930000D01*
X24570000Y-10291846D01*
X24889980Y-10396337D01*
X25258308Y-10293087D01*
X25934214Y-9864924D01*
X26394819Y-9210695D01*
X26570000Y-8430000D01*
X26570000Y-6930000D01*
X24570000Y-6930000D01*
X24470000Y-6930000D01*
X22470000Y-6930000D01*
X21130900Y-6930000D01*
X20979967Y-6564714D01*
X20572431Y-6156467D01*
X20039688Y-5935252D01*
X19462843Y-5934749D01*
X18929714Y-6155033D01*
X18521467Y-6562569D01*
X18500221Y-6613734D01*
X18479967Y-6564714D01*
X18072431Y-6156467D01*
X17539688Y-5935252D01*
X16962843Y-5934749D01*
X16429714Y-6155033D01*
X16021467Y-6562569D01*
X15800252Y-7095312D01*
X15799749Y-7672157D01*
X14530000Y-7672157D01*
X14530000Y-6930000D01*
X12530000Y-6930000D01*
X12430000Y-6930000D01*
X10430000Y-6930000D01*
X8650000Y-6930000D01*
X8650000Y-5330000D01*
X10430000Y-5330000D01*
X10430000Y-6830000D01*
X12430000Y-6830000D01*
X12430000Y-3468154D01*
X12530000Y-3468154D01*
X12530000Y-6830000D01*
X14530000Y-6830000D01*
X14530000Y-5330000D01*
X14354819Y-4549305D01*
X13894214Y-3895076D01*
X13218308Y-3466913D01*
X12849980Y-3363663D01*
X12530000Y-3468154D01*
X12430000Y-3468154D01*
X12110020Y-3363663D01*
X11741692Y-3466913D01*
X11065786Y-3895076D01*
X10605181Y-4549305D01*
X10430000Y-5330000D01*
X8650000Y-5330000D01*
X8650000Y-3175000D01*
X15791184Y-3175000D01*
X15791184Y-5175000D01*
X15822562Y-5341760D01*
X15921117Y-5494919D01*
X16071495Y-5597668D01*
X16250000Y-5633816D01*
X18250000Y-5633816D01*
X18416760Y-5602438D01*
X18569919Y-5503883D01*
X18672668Y-5353505D01*
X18707234Y-5182813D01*
X18927569Y-5403533D01*
X19460312Y-5624748D01*
X20037157Y-5625251D01*
X20570286Y-5404967D01*
X20645383Y-5330000D01*
X22470000Y-5330000D01*
X22470000Y-6830000D01*
X24470000Y-6830000D01*
X24470000Y-3468154D01*
X24570000Y-3468154D01*
X24570000Y-6830000D01*
X26570000Y-6830000D01*
X26570000Y-5330000D01*
X26394819Y-4549305D01*
X25934214Y-3895076D01*
X25258308Y-3466913D01*
X24889980Y-3363663D01*
X24570000Y-3468154D01*
X24470000Y-3468154D01*
X24150020Y-3363663D01*
X23781692Y-3466913D01*
X23105786Y-3895076D01*
X22645181Y-4549305D01*
X22470000Y-5330000D01*
X20645383Y-5330000D01*
X20978533Y-4997431D01*
X21199748Y-4464688D01*
X21200251Y-3887843D01*
X20979967Y-3354714D01*
X20572431Y-2946467D01*
X20039688Y-2725252D01*
X19462843Y-2724749D01*
X18929714Y-2945033D01*
X18707318Y-3167041D01*
X18677438Y-3008240D01*
X18578883Y-2855081D01*
X18428505Y-2752332D01*
X18250000Y-2716184D01*
X16250000Y-2716184D01*
X16083240Y-2747562D01*
X15930081Y-2846117D01*
X15827332Y-2996495D01*
X15791184Y-3175000D01*
X8650000Y-3175000D01*
X8650000Y-500000D01*
X28850000Y-500000D01*
X28850000Y-17500000D01*
G36*
X8350000Y-17500000D02*
X500000Y-17500000D01*
X500000Y-500000D01*
X8350000Y-500000D01*
X8350000Y-17500000D01*
X8350000Y-17500000D01*
G37*
X8350000Y-17500000D02*
X500000Y-17500000D01*
X500000Y-500000D01*
X8350000Y-500000D01*
X8350000Y-17500000D01*
M02*
